<mxfile host="Electron" modified="2023-05-26T08:18:54.146Z" agent="Mozilla/5.0 (X11; Linux x86_64) AppleWebKit/537.36 (KHTML, like Gecko) draw.io/21.2.8 Chrome/106.0.5249.199 Electron/21.4.4 Safari/537.36" etag="RdgTlm1Qg_FhCKHaVS9K" version="21.2.8" type="device">
  <diagram name="Page-1" id="eTUlfuJ5YhyNb2_xbJyM">
    <mxGraphModel dx="589" dy="1379" grid="0" gridSize="10" guides="1" tooltips="1" connect="1" arrows="1" fold="1" page="0" pageScale="1" pageWidth="850" pageHeight="1100" math="0" shadow="0">
      <root>
        <mxCell id="0" />
        <mxCell id="1" parent="0" />
        <mxCell id="CSs9okpgzwKVNZEZRQ2V-6" value="Field" style="swimlane;fontStyle=1;align=center;verticalAlign=top;childLayout=stackLayout;horizontal=1;startSize=37;horizontalStack=0;resizeParent=1;resizeParentMax=0;resizeLast=0;collapsible=1;marginBottom=0;whiteSpace=wrap;html=1;" vertex="1" parent="1">
          <mxGeometry x="437" y="-452" width="184" height="173" as="geometry">
            <mxRectangle x="504" y="-452" width="98" height="26" as="alternateBounds" />
          </mxGeometry>
        </mxCell>
        <mxCell id="CSs9okpgzwKVNZEZRQ2V-7" value="- row: int" style="text;strokeColor=none;fillColor=none;align=left;verticalAlign=top;spacingLeft=4;spacingRight=4;overflow=hidden;rotatable=0;points=[[0,0.5],[1,0.5]];portConstraint=eastwest;whiteSpace=wrap;html=1;" vertex="1" parent="CSs9okpgzwKVNZEZRQ2V-6">
          <mxGeometry y="37" width="184" height="26" as="geometry" />
        </mxCell>
        <mxCell id="CSs9okpgzwKVNZEZRQ2V-10" value="- column: int" style="text;strokeColor=none;fillColor=none;align=left;verticalAlign=top;spacingLeft=4;spacingRight=4;overflow=hidden;rotatable=0;points=[[0,0.5],[1,0.5]];portConstraint=eastwest;whiteSpace=wrap;html=1;" vertex="1" parent="CSs9okpgzwKVNZEZRQ2V-6">
          <mxGeometry y="63" width="184" height="24" as="geometry" />
        </mxCell>
        <mxCell id="CSs9okpgzwKVNZEZRQ2V-13" value="- map: dict(dict(Ship))" style="text;strokeColor=none;fillColor=none;align=left;verticalAlign=top;spacingLeft=4;spacingRight=4;overflow=hidden;rotatable=0;points=[[0,0.5],[1,0.5]];portConstraint=eastwest;whiteSpace=wrap;html=1;" vertex="1" parent="CSs9okpgzwKVNZEZRQ2V-6">
          <mxGeometry y="87" width="184" height="26" as="geometry" />
        </mxCell>
        <mxCell id="CSs9okpgzwKVNZEZRQ2V-8" value="" style="line;strokeWidth=1;fillColor=none;align=left;verticalAlign=middle;spacingTop=-1;spacingLeft=3;spacingRight=3;rotatable=0;labelPosition=right;points=[];portConstraint=eastwest;strokeColor=inherit;" vertex="1" parent="CSs9okpgzwKVNZEZRQ2V-6">
          <mxGeometry y="113" width="184" height="8" as="geometry" />
        </mxCell>
        <mxCell id="CSs9okpgzwKVNZEZRQ2V-9" value="+ add_ships(ShipGroup)" style="text;strokeColor=none;fillColor=none;align=left;verticalAlign=top;spacingLeft=4;spacingRight=4;overflow=hidden;rotatable=0;points=[[0,0.5],[1,0.5]];portConstraint=eastwest;whiteSpace=wrap;html=1;" vertex="1" parent="CSs9okpgzwKVNZEZRQ2V-6">
          <mxGeometry y="121" width="184" height="26" as="geometry" />
        </mxCell>
        <mxCell id="CSs9okpgzwKVNZEZRQ2V-15" value="+ remove_ship(string, int)" style="text;strokeColor=none;fillColor=none;align=left;verticalAlign=top;spacingLeft=4;spacingRight=4;overflow=hidden;rotatable=0;points=[[0,0.5],[1,0.5]];portConstraint=eastwest;whiteSpace=wrap;html=1;" vertex="1" parent="CSs9okpgzwKVNZEZRQ2V-6">
          <mxGeometry y="147" width="184" height="26" as="geometry" />
        </mxCell>
        <mxCell id="CSs9okpgzwKVNZEZRQ2V-12" value="column - row: number of single ship" style="text;html=1;align=center;verticalAlign=middle;resizable=0;points=[];autosize=1;strokeColor=none;fillColor=none;" vertex="1" parent="1">
          <mxGeometry x="672" y="-409" width="207" height="26" as="geometry" />
        </mxCell>
        <mxCell id="CSs9okpgzwKVNZEZRQ2V-14" value="every ship is indexed by [letter][number] e.g. [&quot;a&quot;][1]" style="text;html=1;align=center;verticalAlign=middle;resizable=0;points=[];autosize=1;strokeColor=none;fillColor=none;" vertex="1" parent="1">
          <mxGeometry x="672" y="-371" width="292" height="26" as="geometry" />
        </mxCell>
        <mxCell id="CSs9okpgzwKVNZEZRQ2V-16" value="Ship" style="swimlane;fontStyle=1;align=center;verticalAlign=top;childLayout=stackLayout;horizontal=1;startSize=26;horizontalStack=0;resizeParent=1;resizeParentMax=0;resizeLast=0;collapsible=1;marginBottom=0;whiteSpace=wrap;html=1;" vertex="1" parent="1">
          <mxGeometry x="435.5" y="-238" width="187" height="112" as="geometry" />
        </mxCell>
        <mxCell id="CSs9okpgzwKVNZEZRQ2V-17" value="- coordinate: tuple(column, row)" style="text;strokeColor=none;fillColor=none;align=left;verticalAlign=top;spacingLeft=4;spacingRight=4;overflow=hidden;rotatable=0;points=[[0,0.5],[1,0.5]];portConstraint=eastwest;whiteSpace=wrap;html=1;" vertex="1" parent="CSs9okpgzwKVNZEZRQ2V-16">
          <mxGeometry y="26" width="187" height="26" as="geometry" />
        </mxCell>
        <mxCell id="CSs9okpgzwKVNZEZRQ2V-20" value="- color: string" style="text;strokeColor=none;fillColor=none;align=left;verticalAlign=top;spacingLeft=4;spacingRight=4;overflow=hidden;rotatable=0;points=[[0,0.5],[1,0.5]];portConstraint=eastwest;whiteSpace=wrap;html=1;" vertex="1" parent="CSs9okpgzwKVNZEZRQ2V-16">
          <mxGeometry y="52" width="187" height="26" as="geometry" />
        </mxCell>
        <mxCell id="CSs9okpgzwKVNZEZRQ2V-25" value="- group: ShipGroup" style="text;strokeColor=none;fillColor=none;align=left;verticalAlign=top;spacingLeft=4;spacingRight=4;overflow=hidden;rotatable=0;points=[[0,0.5],[1,0.5]];portConstraint=eastwest;whiteSpace=wrap;html=1;" vertex="1" parent="CSs9okpgzwKVNZEZRQ2V-16">
          <mxGeometry y="78" width="187" height="26" as="geometry" />
        </mxCell>
        <mxCell id="CSs9okpgzwKVNZEZRQ2V-18" value="" style="line;strokeWidth=1;fillColor=none;align=left;verticalAlign=middle;spacingTop=-1;spacingLeft=3;spacingRight=3;rotatable=0;labelPosition=right;points=[];portConstraint=eastwest;strokeColor=inherit;" vertex="1" parent="CSs9okpgzwKVNZEZRQ2V-16">
          <mxGeometry y="104" width="187" height="8" as="geometry" />
        </mxCell>
        <mxCell id="CSs9okpgzwKVNZEZRQ2V-21" value="ShipGroup" style="swimlane;fontStyle=1;align=center;verticalAlign=top;childLayout=stackLayout;horizontal=1;startSize=26;horizontalStack=0;resizeParent=1;resizeParentMax=0;resizeLast=0;collapsible=1;marginBottom=0;whiteSpace=wrap;html=1;" vertex="1" parent="1">
          <mxGeometry x="433" y="-55" width="215" height="60" as="geometry" />
        </mxCell>
        <mxCell id="CSs9okpgzwKVNZEZRQ2V-22" value="- members: list(tuple(letter, labmobile))" style="text;strokeColor=none;fillColor=none;align=left;verticalAlign=top;spacingLeft=4;spacingRight=4;overflow=hidden;rotatable=0;points=[[0,0.5],[1,0.5]];portConstraint=eastwest;whiteSpace=wrap;html=1;" vertex="1" parent="CSs9okpgzwKVNZEZRQ2V-21">
          <mxGeometry y="26" width="215" height="26" as="geometry" />
        </mxCell>
        <mxCell id="CSs9okpgzwKVNZEZRQ2V-23" value="" style="line;strokeWidth=1;fillColor=none;align=left;verticalAlign=middle;spacingTop=-1;spacingLeft=3;spacingRight=3;rotatable=0;labelPosition=right;points=[];portConstraint=eastwest;strokeColor=inherit;" vertex="1" parent="CSs9okpgzwKVNZEZRQ2V-21">
          <mxGeometry y="52" width="215" height="8" as="geometry" />
        </mxCell>
        <mxCell id="CSs9okpgzwKVNZEZRQ2V-26" value="Player" style="swimlane;fontStyle=1;align=center;verticalAlign=top;childLayout=stackLayout;horizontal=1;startSize=26;horizontalStack=0;resizeParent=1;resizeParentMax=0;resizeLast=0;collapsible=1;marginBottom=0;whiteSpace=wrap;html=1;" vertex="1" parent="1">
          <mxGeometry x="820" y="-220" width="243" height="164" as="geometry" />
        </mxCell>
        <mxCell id="CSs9okpgzwKVNZEZRQ2V-27" value="- type: string" style="text;strokeColor=none;fillColor=none;align=left;verticalAlign=top;spacingLeft=4;spacingRight=4;overflow=hidden;rotatable=0;points=[[0,0.5],[1,0.5]];portConstraint=eastwest;whiteSpace=wrap;html=1;" vertex="1" parent="CSs9okpgzwKVNZEZRQ2V-26">
          <mxGeometry y="26" width="243" height="26" as="geometry" />
        </mxCell>
        <mxCell id="CSs9okpgzwKVNZEZRQ2V-30" value="- name: string" style="text;strokeColor=none;fillColor=none;align=left;verticalAlign=top;spacingLeft=4;spacingRight=4;overflow=hidden;rotatable=0;points=[[0,0.5],[1,0.5]];portConstraint=eastwest;whiteSpace=wrap;html=1;" vertex="1" parent="CSs9okpgzwKVNZEZRQ2V-26">
          <mxGeometry y="52" width="243" height="26" as="geometry" />
        </mxCell>
        <mxCell id="CSs9okpgzwKVNZEZRQ2V-31" value="- field: Field" style="text;strokeColor=none;fillColor=none;align=left;verticalAlign=top;spacingLeft=4;spacingRight=4;overflow=hidden;rotatable=0;points=[[0,0.5],[1,0.5]];portConstraint=eastwest;whiteSpace=wrap;html=1;" vertex="1" parent="CSs9okpgzwKVNZEZRQ2V-26">
          <mxGeometry y="78" width="243" height="26" as="geometry" />
        </mxCell>
        <mxCell id="CSs9okpgzwKVNZEZRQ2V-33" value="- color: string" style="text;strokeColor=none;fillColor=none;align=left;verticalAlign=top;spacingLeft=4;spacingRight=4;overflow=hidden;rotatable=0;points=[[0,0.5],[1,0.5]];portConstraint=eastwest;whiteSpace=wrap;html=1;" vertex="1" parent="CSs9okpgzwKVNZEZRQ2V-26">
          <mxGeometry y="104" width="243" height="26" as="geometry" />
        </mxCell>
        <mxCell id="CSs9okpgzwKVNZEZRQ2V-34" value="- shipGroups: list(ShipGroup)&amp;nbsp;" style="text;strokeColor=none;fillColor=none;align=left;verticalAlign=top;spacingLeft=4;spacingRight=4;overflow=hidden;rotatable=0;points=[[0,0.5],[1,0.5]];portConstraint=eastwest;whiteSpace=wrap;html=1;" vertex="1" parent="CSs9okpgzwKVNZEZRQ2V-26">
          <mxGeometry y="130" width="243" height="26" as="geometry" />
        </mxCell>
        <mxCell id="CSs9okpgzwKVNZEZRQ2V-28" value="" style="line;strokeWidth=1;fillColor=none;align=left;verticalAlign=middle;spacingTop=-1;spacingLeft=3;spacingRight=3;rotatable=0;labelPosition=right;points=[];portConstraint=eastwest;strokeColor=inherit;" vertex="1" parent="CSs9okpgzwKVNZEZRQ2V-26">
          <mxGeometry y="156" width="243" height="8" as="geometry" />
        </mxCell>
      </root>
    </mxGraphModel>
  </diagram>
</mxfile>
